…
``` r
mean(starwars$height)
```

    ## [1] NA

Ahora, si queremos calcular el promedio por especie, usando `dplyr`:

``` r
starwars %>% 
  group_by(species) %>% 
  summarise(mean(height))
```

    ## # A tibble: 38 x 2
    ##    species   `mean(height)`
    ##    <chr>              <dbl>
    ##  1 <NA>                  NA
    ##  2 Aleena                79
    ##  3 Besalisk             198
    ##  4 Cerean               198
    ##  5 Chagrian             196
    ##  6 Clawdite             168
    ##  7 Droid                 NA
    ##  8 Dug                  112
    ##  9 Ewok                  88
    ## 10 Geonosian            183
    ## # ... with 28 more rows

Sin el uso de la pipa `%>%`, el código anterior se escribiría:

``` r
summarise(group_by(starwars, species), mean(height))
```

    ## # A tibble: 38 x 2
    ##    species   `mean(height)`
    ##    <chr>              <dbl>
    ##  1 <NA>                  NA
    ##  2 Aleena                79
    ##  3 Besalisk             198
    ##  4 Cerean               198
    ##  5 Chagrian             196
    ##  6 Clawdite             168
    ##  7 Droid                 NA
    ##  8 Dug                  112
    ##  9 Ewok                  88
    ## 10 Geonosian            183
    ## # ... with 28 more rows

Como se puede ver, es mucho mas dificil de leer la línea anterior.
Ahora, si queremos la altura promedio por especies, pero solo para
hombres:

``` r
starwars %>% 
  filter(gender == "male") %>% 
  group_by(species) %>% 
  summarise( mean(height))
```

    ## # A tibble: 32 x 2
    ##    species   `mean(height)`
    ##    <chr>              <dbl>
    ##  1 <NA>                183 
    ##  2 Aleena               79 
    ##  3 Besalisk            198 
    ##  4 Cerean              198 
    ##  5 Chagrian            196 
    ##  6 Dug                 112 
    ##  7 Ewok                 88 
    ##  8 Geonosian           183 
    ##  9 Gungan              209.
    ## 10 Human                NA 
    ## # ... with 22 more rows

De nuevo, la línea anterior sin las pipas se escribiría:

``` r
summarise(group_by(filter(starwars, gender == "male"), species), mean(height))
```

    ## # A tibble: 32 x 2
    ##    species   `mean(height)`
    ##    <chr>              <dbl>
    ##  1 <NA>                183 
    ##  2 Aleena               79 
    ##  3 Besalisk            198 
    ##  4 Cerean              198 
    ##  5 Chagrian            196 
    ##  6 Dug                 112 
    ##  7 Ewok                 88 
    ##  8 Geonosian           183 
    ##  9 Gungan              209.
    ## 10 Human                NA 
    ## # ... with 22 more rows

Es dificil de leer. Una manera de hacerlo más legible podría ser
guardando los cambios en variables intermedias:

``` r
starwars_hombres <- filter(starwars, gender == "male")

starwars_agrupado_hombres <- group_by(starwars_hombres, species)

summarise(starwars_agrupado_hombres, mean(height))
```

    ## # A tibble: 32 x 2
    ##    species   `mean(height)`
    ##    <chr>              <dbl>
    ##  1 <NA>                183 
    ##  2 Aleena               79 
    ##  3 Besalisk            198 
    ##  4 Cerean              198 
    ##  5 Chagrian            196 
    ##  6 Dug                 112 
    ##  7 Ewok                 88 
    ##  8 Geonosian           183 
    ##  9 Gungan              209.
    ## 10 Human                NA 
    ## # ... with 22 more rows
…
Si necesitas más que solo el promedio de la altura, solo añadir las
funciones que necesitas:

``` r
summary_table <- starwars %>% 
  group_by(species) %>%
  summarise(ave_height = mean(height), var_height = var(height), n_obs = n(), sd_altura = sd(height))

print(summary_table)
```

    ## # A tibble: 38 x 5
    ##    species   ave_height var_height n_obs sd_altura
    ##    <chr>          <dbl>      <dbl> <int>     <dbl>
    ##  1 <NA>              NA         NA     5       NaN
    ##  2 Aleena            79         NA     1       NaN
    ##  3 Besalisk         198         NA     1       NaN
    ##  4 Cerean           198         NA     1       NaN
    ##  5 Chagrian         196         NA     1       NaN
    ##  6 Clawdite         168         NA     1       NaN
    ##  7 Droid             NA         NA     5       NaN
    ##  8 Dug              112         NA     1       NaN
    ##  9 Ewok              88         NA     1       NaN
    ## 10 Geonosian        183         NA     1       NaN
    ## # ... with 28 more rows
…
La función `is.na()` es de R base. Se puede usar para filtrar los `NA`:

``` r
starwars %>%
  filter(!is.na(species))
```

    ## # A tibble: 82 x 13
    ##    name  height  mass hair_color skin_color eye_color birth_year gender
    ##    <chr>  <int> <dbl> <chr>      <chr>      <chr>          <dbl> <chr> 
    ##  1 Luke~    172    77 blond      fair       blue            19   male  
    ##  2 C-3PO    167    75 <NA>       gold       yellow         112   <NA>  
    ##  3 R2-D2     96    32 <NA>       white, bl~ red             33   <NA>  
    ##  4 Dart~    202   136 none       white      yellow          41.9 male  
    ##  5 Leia~    150    49 brown      light      brown           19   female
    ##  6 Owen~    178   120 brown, gr~ light      blue            52   male  
    ##  7 Beru~    165    75 brown      light      blue            47   female
    ##  8 R5-D4     97    32 <NA>       white, red red             NA   <NA>  
    ##  9 Bigg~    183    84 black      light      brown           24   male  
    ## 10 Obi-~    182    77 auburn, w~ fair       blue-gray       57   male  
    ## # ... with 72 more rows, and 5 more variables: homeworld <chr>,
    ## #   species <chr>, films <list>, vehicles <list>, starships <list>
…
Incluso se puede filtrar más de un solo año, usando el operador `%in%`:

``` r
gasoline %>% filter(year %in% seq(1969, 1973 ,by = 2))
```

    ## # A tibble: 54 x 6
    ##    country  year lgaspcar lincomep  lrpmg lcarpcap
    ##    <fct>   <int>    <dbl>    <dbl>  <dbl>    <dbl>
    ##  1 AUSTRIA  1969     4.05    -6.15 -0.559    -8.79
    ##  2 AUSTRIA  1971     4.11    -6.04 -0.654    -8.64
    ##  3 AUSTRIA  1973     4.20    -5.90 -0.594    -8.49
    ##  4 BELGIUM  1969     3.85    -5.86 -0.355    -8.52
    ##  5 BELGIUM  1971     3.87    -5.76 -0.399    -8.41
    ##  6 BELGIUM  1973     3.90    -5.64 -0.373    -8.31
    ##  7 CANADA   1969     4.86    -5.56 -1.04     -8.10
    ##  8 CANADA   1971     4.90    -5.48 -1.06     -8.04
    ##  9 CANADA   1973     4.90    -5.41 -1.13     -7.94
    ## 10 DENMARK  1969     4.17    -5.72 -0.407    -8.47
    ## # ... with 44 more rows

``` r
gasoline %>% filter(year %in% 1969:1973)
```

    ## # A tibble: 90 x 6
    ##    country  year lgaspcar lincomep  lrpmg lcarpcap
    ##    <fct>   <int>    <dbl>    <dbl>  <dbl>    <dbl>
    ##  1 AUSTRIA  1969     4.05    -6.15 -0.559    -8.79
    ##  2 AUSTRIA  1970     4.08    -6.08 -0.597    -8.73
    ##  3 AUSTRIA  1971     4.11    -6.04 -0.654    -8.64
    ##  4 AUSTRIA  1972     4.13    -5.98 -0.596    -8.54
    ##  5 AUSTRIA  1973     4.20    -5.90 -0.594    -8.49
    ##  6 BELGIUM  1969     3.85    -5.86 -0.355    -8.52
    ##  7 BELGIUM  1970     3.87    -5.80 -0.378    -8.45
    ##  8 BELGIUM  1971     3.87    -5.76 -0.399    -8.41
    ##  9 BELGIUM  1972     3.91    -5.71 -0.311    -8.36
    ## 10 BELGIUM  1973     3.90    -5.64 -0.373    -8.31
    ## # ... with 80 more rows

También se puede usar `between()`:

``` r
gasoline %>% filter(between(year, 1969, 1973))
```

    ## # A tibble: 90 x 6
    ##    country  year lgaspcar lincomep  lrpmg lcarpcap
    ##    <fct>   <int>    <dbl>    <dbl>  <dbl>    <dbl>
    ##  1 AUSTRIA  1969     4.05    -6.15 -0.559    -8.79
    ##  2 AUSTRIA  1970     4.08    -6.08 -0.597    -8.73
    ##  3 AUSTRIA  1971     4.11    -6.04 -0.654    -8.64
    ##  4 AUSTRIA  1972     4.13    -5.98 -0.596    -8.54
    ##  5 AUSTRIA  1973     4.20    -5.90 -0.594    -8.49
    ##  6 BELGIUM  1969     3.85    -5.86 -0.355    -8.52
    ##  7 BELGIUM  1970     3.87    -5.80 -0.378    -8.45
    ##  8 BELGIUM  1971     3.87    -5.76 -0.399    -8.41
    ##  9 BELGIUM  1972     3.91    -5.71 -0.311    -8.36
    ## 10 BELGIUM  1973     3.90    -5.64 -0.373    -8.31
    ## # ... with 80 more rows

Seleccionar algunas específicas:

``` r
gasoline %>% filter(year %in% c(1969, 1973, 1977))
```

    ## # A tibble: 54 x 6
    ##    country  year lgaspcar lincomep  lrpmg lcarpcap
    ##    <fct>   <int>    <dbl>    <dbl>  <dbl>    <dbl>
    ##  1 AUSTRIA  1969     4.05    -6.15 -0.559    -8.79
    ##  2 AUSTRIA  1973     4.20    -5.90 -0.594    -8.49
    ##  3 AUSTRIA  1977     3.93    -5.83 -0.422    -8.25
    ##  4 BELGIUM  1969     3.85    -5.86 -0.355    -8.52
    ##  5 BELGIUM  1973     3.90    -5.64 -0.373    -8.31
    ##  6 BELGIUM  1977     3.85    -5.56 -0.432    -8.14
    ##  7 CANADA   1969     4.86    -5.56 -1.04     -8.10
    ##  8 CANADA   1973     4.90    -5.41 -1.13     -7.94
    ##  9 CANADA   1977     4.81    -5.34 -1.07     -7.77
    ## 10 DENMARK  1969     4.17    -5.72 -0.407    -8.47
    ## # ... with 44 more rows
…
